"Id";"Designator";"Package";"Quantity";"Designation";"Supplier and ref";
1;"D7,D1,D2,D3,D4,D5,D6";"LED_D3.0mm";7;"LED";;;
2;"P1";"USB_C_Plug_JAE_DX07P024AJ1";1;"USB_C_Plug";;;
3;"R1,R3,R5,R7,R9,R11";"R_Axial_DIN0204_L3.6mm_D1.6mm_P1.90mm_Vertical";6;"10";;;
4;"H4,H3,H2,H1";"MountingHole_2.7mm_M2.5_uHAT_RPi";4;"MountingHole";;;
5;"J1";"PinSocket_2x20_P2.54mm_Vertical_Centered_Anchor";1;"GPIO_CONNECTOR";;;
6;"C1";"CP_Elec_3x5.3";1;"20µ";;;
7;"L1";"L_6.3x6.3_H3";1;"2.2µ";;;
8;"U1";"MSOP-10_3x3mm_P0.5mm";1;"ADP2120";;;
9;"U2,U3,U4";"SOT-23-5";3;"OP179GRT";;;
10;"R13";"R_Axial_DIN0204_L3.6mm_D1.6mm_P1.90mm_Vertical";1;"R10";;;
11;"R15";"R_Axial_DIN0204_L3.6mm_D1.6mm_P1.90mm_Vertical";1;"100k";;;
12;"R16";"R_Axial_DIN0204_L3.6mm_D1.6mm_P1.90mm_Vertical";1;"13.5k";;;
13;"R17";"R_Axial_DIN0204_L3.6mm_D1.6mm_P1.90mm_Vertical";1;"3k";;;
14;"R18,R20,R22";"R_Axial_DIN0204_L3.6mm_D1.6mm_P1.90mm_Vertical";3;"12k";;;
15;"R19,R21,R23";"R_Axial_DIN0204_L3.6mm_D1.6mm_P1.90mm_Vertical";3;"10k";;;
16;"Q4,Q1,Q3,Q5,Q6,Q2,Q7";"JANTX2N2222A";7;"2N2222AUB";;;
17;"R2,R14,R4,R12,R10";"R_Axial_DIN0204_L3.6mm_D1.6mm_P1.90mm_Vertical";5;"1000";;;
18;"R6,R8";"R_Axial_DIN0204_L3.6mm_D1.6mm_P1.90mm_Vertical";2;"R1000";;;
