EESchema Schematic File Version 4
EELAYER 30 0
EELAYER END
$Descr A4 11693 8268
encoding utf-8
Sheet 3 4
Title "Switch Mode Power Supply"
Date "2021-06-02"
Rev "1"
Comp ""
Comment1 ""
Comment2 ""
Comment3 ""
Comment4 ""
$EndDescr
$Comp
L HAT_PCB-rescue:USB_C_Plug-Connector P1
U 1 1 60B70DB7
P 2550 2200
F 0 "P1" H 2657 3467 50  0000 C CNN
F 1 "USB_C_Plug" H 2657 3376 50  0000 C CNN
F 2 "Connector_USB:USB_C_Plug_JAE_DX07P024AJ1" H 2700 2200 50  0001 C CNN
F 3 "https://www.usb.org/sites/default/files/documents/usb_type-c.zip" H 2700 2200 50  0001 C CNN
	1    2550 2200
	1    0    0    -1  
$EndComp
Wire Wire Line
	3150 1500 3600 1500
Wire Wire Line
	5850 1500 5850 2050
Wire Wire Line
	5550 2050 5700 2050
Wire Wire Line
	5700 2050 5700 2250
Wire Wire Line
	5700 2250 5550 2250
Connection ~ 5700 2050
Wire Wire Line
	5700 2050 5850 2050
Wire Wire Line
	5700 2050 5700 1850
Wire Wire Line
	5700 1850 5550 1850
Wire Wire Line
	3600 1500 3600 3300
Wire Wire Line
	3600 3300 5550 3300
Wire Wire Line
	5550 3300 5550 2550
Connection ~ 3600 1500
Wire Wire Line
	3600 1500 5850 1500
$Comp
L power:GND #PWR0112
U 1 1 60B7A387
P 2550 3800
F 0 "#PWR0112" H 2550 3550 50  0001 C CNN
F 1 "GND" H 2555 3627 50  0000 C CNN
F 2 "" H 2550 3800 50  0001 C CNN
F 3 "" H 2550 3800 50  0001 C CNN
	1    2550 3800
	1    0    0    -1  
$EndComp
$Comp
L power:GND #PWR0113
U 1 1 60B7DD29
P 4750 2250
F 0 "#PWR0113" H 4750 2000 50  0001 C CNN
F 1 "GND" V 4755 2122 50  0000 R CNN
F 2 "" H 4750 2250 50  0001 C CNN
F 3 "" H 4750 2250 50  0001 C CNN
	1    4750 2250
	0    1    1    0   
$EndComp
$Comp
L Device:R_Small_US R15
U 1 1 60B7FA07
P 4500 2050
F 0 "R15" V 4295 2050 50  0000 C CNN
F 1 "100k" V 4386 2050 50  0000 C CNN
F 2 "Resistor_THT:R_Axial_DIN0204_L3.6mm_D1.6mm_P1.90mm_Vertical" H 4500 2050 50  0001 C CNN
F 3 "~" H 4500 2050 50  0001 C CNN
	1    4500 2050
	0    1    1    0   
$EndComp
Wire Wire Line
	4600 2050 4750 2050
$Comp
L power:GND #PWR0114
U 1 1 60B8281A
P 5150 2900
F 0 "#PWR0114" H 5150 2650 50  0001 C CNN
F 1 "GND" H 5155 2727 50  0000 C CNN
F 2 "" H 5150 2900 50  0001 C CNN
F 3 "" H 5150 2900 50  0001 C CNN
	1    5150 2900
	1    0    0    -1  
$EndComp
Wire Wire Line
	5700 3200 5700 2450
Wire Wire Line
	5700 2450 5550 2450
$Comp
L Device:R_Small_US R16
U 1 1 60B76CE9
P 3900 2200
F 0 "R16" H 3968 2246 50  0000 L CNN
F 1 "13.5k" H 3968 2155 50  0000 L CNN
F 2 "Resistor_THT:R_Axial_DIN0204_L3.6mm_D1.6mm_P1.90mm_Vertical" H 3900 2200 50  0001 C CNN
F 3 "~" H 3900 2200 50  0001 C CNN
	1    3900 2200
	1    0    0    -1  
$EndComp
Wire Wire Line
	4750 2350 3900 2350
Wire Wire Line
	3900 2300 3900 2350
$Comp
L Device:R_Small_US R17
U 1 1 60B795DF
P 3900 2500
F 0 "R17" H 3968 2546 50  0000 L CNN
F 1 "3k" H 3968 2455 50  0000 L CNN
F 2 "Resistor_THT:R_Axial_DIN0204_L3.6mm_D1.6mm_P1.90mm_Vertical" H 3900 2500 50  0001 C CNN
F 3 "~" H 3900 2500 50  0001 C CNN
	1    3900 2500
	1    0    0    -1  
$EndComp
$Comp
L power:GND #PWR0115
U 1 1 60B79E15
P 3900 2700
F 0 "#PWR0115" H 3900 2450 50  0001 C CNN
F 1 "GND" H 3905 2527 50  0000 C CNN
F 2 "" H 3900 2700 50  0001 C CNN
F 3 "" H 3900 2700 50  0001 C CNN
	1    3900 2700
	1    0    0    -1  
$EndComp
Wire Wire Line
	3900 2700 3900 2600
Wire Wire Line
	3900 2400 3900 2350
Connection ~ 3900 2350
Wire Wire Line
	4050 1750 4050 2050
Text GLabel 4050 1750 0    50   Input ~ 0
3.3V_SMP
Wire Wire Line
	4700 1250 3600 1250
Wire Wire Line
	3600 1250 3600 1500
Text GLabel 4700 1250 2    50   Input ~ 0
5V_USB
Text HLabel 4650 1700 0    50   Input ~ 0
SMP_Enable
Wire Wire Line
	4750 1850 4700 1850
Wire Wire Line
	4700 1850 4700 1700
Wire Wire Line
	4700 1700 4650 1700
Wire Wire Line
	4050 2050 3900 2050
Wire Wire Line
	3900 2050 3900 2100
Connection ~ 4050 2050
NoConn ~ 2250 3800
NoConn ~ 3150 3500
NoConn ~ 3150 3400
NoConn ~ 3150 3200
NoConn ~ 3150 3100
NoConn ~ 3150 2900
NoConn ~ 3150 2800
NoConn ~ 3150 2600
NoConn ~ 3150 2500
NoConn ~ 3150 2300
NoConn ~ 3150 2200
NoConn ~ 3150 1900
NoConn ~ 3150 1700
NoConn ~ 3150 1400
NoConn ~ 3150 1200
Wire Wire Line
	4050 2050 4350 2050
Wire Wire Line
	4350 2050 4400 2050
Connection ~ 4350 2050
Wire Wire Line
	4350 3200 4350 3150
Wire Wire Line
	5700 3200 4350 3200
$Comp
L Device:L L1
U 1 1 60B87CF3
P 4350 3000
F 0 "L1" H 4403 3046 50  0000 L CNN
F 1 "2.2µ" H 4403 2955 50  0000 L CNN
F 2 "Inductor_SMD:L_6.3x6.3_H3" H 4350 3000 50  0001 C CNN
F 3 "~" H 4350 3000 50  0001 C CNN
	1    4350 3000
	1    0    0    -1  
$EndComp
$Comp
L Regulator_Switching:LM5006MM U1
U 1 1 60B688BA
P 5150 2250
F 0 "U1" H 5150 2917 50  0000 C CNN
F 1 "ADP2120" H 5150 2826 50  0000 C CNN
F 2 "Package_SO:MSOP-10_3x3mm_P0.5mm" H 5200 1800 50  0001 L CIN
F 3 "http://www.ti.com/lit/ds/symlink/lm5006.pdf" H 5150 2250 50  0001 C CNN
	1    5150 2250
	1    0    0    -1  
$EndComp
Wire Wire Line
	5150 2750 5150 2850
$Comp
L pspice:C C1
U 1 1 60B8D41A
P 4650 2700
F 0 "C1" V 4965 2700 50  0000 C CNN
F 1 "20µ" V 4874 2700 50  0000 C CNN
F 2 "Capacitor_SMD:CP_Elec_3x5.3" H 4650 2700 50  0001 C CNN
F 3 "~" H 4650 2700 50  0001 C CNN
	1    4650 2700
	0    -1   -1   0   
$EndComp
Wire Wire Line
	4350 2050 4350 2700
Wire Wire Line
	5150 2850 4900 2850
Wire Wire Line
	4900 2850 4900 2700
Connection ~ 5150 2850
Wire Wire Line
	5150 2850 5150 2900
Wire Wire Line
	4400 2700 4350 2700
Connection ~ 4350 2700
Wire Wire Line
	4350 2700 4350 2850
$EndSCHEMATC
