PCBNEW-LibModule-V1  2021-06-03 07:52:35
# encoding utf-8
Units mm
$INDEX
JANTX2N2222A
$EndINDEX
$MODULE JANTX2N2222A
Po 0 0 0 15 60b87c33 00000000 ~~
Li JANTX2N2222A
Cd TO-18_1
Kw Transistor BJT NPN
Sc 0
At STD
AR 
Op 0 0 0
T0 0.000 0.175 1.27 1.27 0 0.254 N V 21 N "Q**"
T1 0.000 0.175 1.27 1.27 0 0.254 N I 21 N "JANTX2N2222A"
DS -3.92 -3.92 3.92 -3.92 0.1 24
DS 3.92 -3.92 3.92 4.27 0.1 24
DS 3.92 4.27 -3.92 4.27 0.1 24
DS -3.92 4.27 -3.92 -3.92 0.1 24
DS -2.92 -0 -2.92 -0 0.2 24
DS 2.92 -0 2.92 -0 0.2 24
DS -2.92 -0 -2.92 -0 0.1 21
DS 2.92 -0 2.92 -0 0.1 21
DS -1.37 3.17 -1.37 3.17 0.2 21
DS -1.17 3.17 -1.17 3.17 0.2 21
DA 0 -0 -2.920 -0 -1800 0.2 24
DA 0 -0 2.920 -0 -1800 0.2 24
DA 0 -0 -2.920 -0 -1800 0.1 21
DA 0 -0 2.920 -0 -1800 0.1 21
DA -1.27 3.17 -1.370 3.17 -1800 0.2 21
DA -1.27 3.17 -1.170 3.17 -1800 0.2 21
$PAD
Po -0.898 0.898
Sh "1" C 1.251 1.251 0 0 900
Dr 0.73 0 0
At STD N 00E0FFFF
Ne 0 ""
$EndPAD
$PAD
Po 0.898 0.898
Sh "2" C 1.251 1.251 0 0 900
Dr 0.73 0 0
At STD N 00E0FFFF
Ne 0 ""
$EndPAD
$PAD
Po 0.898 -0.898
Sh "3" C 1.251 1.251 0 0 900
Dr 0.73 0 0
At STD N 00E0FFFF
Ne 0 ""
$EndPAD
$EndMODULE JANTX2N2222A
$EndLIBRARY
