PCBNEW-LibModule-V1  2021-06-03 07:51:18
# encoding utf-8
Units mm
$INDEX
SON50P300X300X85-11N
$EndINDEX
$MODULE SON50P300X300X85-11N
Po 0 0 0 15 60b87be6 00000000 ~~
Li SON50P300X300X85-11N
Cd SON50P300X300X85-11N
Kw Integrated Circuit
Sc 0
At SMD
AR 
Op 0 0 0
T0 -3.4544 -3.175 1.27 1.27 0 0.254 N V 21 N "IC**"
T1 -3.4544 -3.175 1.27 1.27 0 0.254 N I 21 N "SON50P300X300X85-11N"
DS -1.4986 1.4986 1.4986 1.4986 0.1524 21
DS 1.4986 -1.4986 -1.4986 -1.4986 0.1524 21
$PAD
Po -1.397 -0.9906
Sh "1" R 0.3048 0.8128 0 0 900
At SMD N 00888000
Ne 0 ""
$EndPAD
$PAD
Po -1.397 -0.508
Sh "2" R 0.3048 0.8128 0 0 900
At SMD N 00888000
Ne 0 ""
$EndPAD
$PAD
Po -1.397 0
Sh "3" R 0.3048 0.8128 0 0 900
At SMD N 00888000
Ne 0 ""
$EndPAD
$PAD
Po -1.397 0.508
Sh "4" R 0.3048 0.8128 0 0 900
At SMD N 00888000
Ne 0 ""
$EndPAD
$PAD
Po -1.397 0.9906
Sh "5" R 0.3048 0.8128 0 0 900
At SMD N 00888000
Ne 0 ""
$EndPAD
$PAD
Po 1.397 0.9906
Sh "6" R 0.3048 0.8128 0 0 900
At SMD N 00888000
Ne 0 ""
$EndPAD
$PAD
Po 1.397 0.508
Sh "7" R 0.3048 0.8128 0 0 900
At SMD N 00888000
Ne 0 ""
$EndPAD
$PAD
Po 1.397 0
Sh "8" R 0.3048 0.8128 0 0 900
At SMD N 00888000
Ne 0 ""
$EndPAD
$PAD
Po 1.397 -0.508
Sh "9" R 0.3048 0.8128 0 0 900
At SMD N 00888000
Ne 0 ""
$EndPAD
$PAD
Po 1.397 -0.9906
Sh "10" R 0.3048 0.8128 0 0 900
At SMD N 00888000
Ne 0 ""
$EndPAD
$PAD
Po 0 0
Sh "11" R 1.4986 2.2352 0 0 0
At SMD N 00888000
Ne 0 ""
$EndPAD
$EndMODULE SON50P300X300X85-11N
$EndLIBRARY
