(module "SON50P300X300X85-11N" (layer F.Cu)
  (descr "SON50P300X300X85-11N")
  (tags "Integrated Circuit")
  (attr smd)
  (fp_text reference IC** (at -3.4544 -3.175) (layer F.SilkS)
    (effects (font (size 1.27 1.27) (thickness 0.254)))
  )
  (fp_text user %R (at -3.4544 -3.175) (layer F.Fab)
    (effects (font (size 1.27 1.27) (thickness 0.254)))
  )
  (fp_text value "SON50P300X300X85-11N" (at -3.4544 -3.175) (layer F.SilkS) hide
    (effects (font (size 1.27 1.27) (thickness 0.254)))
  )
  (fp_line (start -1.4986 1.4986) (end 1.4986 1.4986) (layer F.SilkS) (width 0.1524))
  (fp_line (start 1.4986 -1.4986) (end -1.4986 -1.4986) (layer F.SilkS) (width 0.1524))
  (pad 1 smd rect (at -1.397 -0.9906 90) (size 0.3048 0.8128) (layers F.Cu F.Paste F.Mask))
  (pad 2 smd rect (at -1.397 -0.508 90) (size 0.3048 0.8128) (layers F.Cu F.Paste F.Mask))
  (pad 3 smd rect (at -1.397 0 90) (size 0.3048 0.8128) (layers F.Cu F.Paste F.Mask))
  (pad 4 smd rect (at -1.397 0.508 90) (size 0.3048 0.8128) (layers F.Cu F.Paste F.Mask))
  (pad 5 smd rect (at -1.397 0.9906 90) (size 0.3048 0.8128) (layers F.Cu F.Paste F.Mask))
  (pad 6 smd rect (at 1.397 0.9906 90) (size 0.3048 0.8128) (layers F.Cu F.Paste F.Mask))
  (pad 7 smd rect (at 1.397 0.508 90) (size 0.3048 0.8128) (layers F.Cu F.Paste F.Mask))
  (pad 8 smd rect (at 1.397 0 90) (size 0.3048 0.8128) (layers F.Cu F.Paste F.Mask))
  (pad 9 smd rect (at 1.397 -0.508 90) (size 0.3048 0.8128) (layers F.Cu F.Paste F.Mask))
  (pad 10 smd rect (at 1.397 -0.9906 90) (size 0.3048 0.8128) (layers F.Cu F.Paste F.Mask))
  (pad 11 smd rect (at 0 0 0) (size 1.4986 2.2352) (layers F.Cu F.Paste F.Mask))
)
